-a="D:\Long_Art\Pec_02 - copia\Library\PlayerScriptAssemblies\Assembly-CSharp.dll"
-a="D:\Long_Art\Pec_02 - copia\Library\PlayerScriptAssemblies\Unity.ProBuilder.dll"
-a="D:\Long_Art\Pec_02 - copia\Library\PlayerScriptAssemblies\Autodesk.Fbx.dll"
-a="D:\Long_Art\Pec_02 - copia\Library\PlayerScriptAssemblies\UnityEngine.UI.dll"
-a="D:\Long_Art\Pec_02 - copia\Library\PlayerScriptAssemblies\Unity.ProBuilder.Poly2Tri.dll"
-a="D:\Long_Art\Pec_02 - copia\Library\PlayerScriptAssemblies\Unity.Formats.Fbx.Runtime.dll"
-a="D:\Long_Art\Pec_02 - copia\Library\PlayerScriptAssemblies\FbxBuildTestAssets.dll"
-a="D:\Long_Art\Pec_02 - copia\Library\PlayerScriptAssemblies\UnityEngine.TestRunner.dll"
-a="D:\Long_Art\Pec_02 - copia\Library\PlayerScriptAssemblies\Unity.Timeline.dll"
-a="D:\Long_Art\Pec_02 - copia\Library\PlayerScriptAssemblies\Unity.TextMeshPro.dll"
-a="D:\Long_Art\Pec_02 - copia\Library\PlayerScriptAssemblies\Unity.ProBuilder.Csg.dll"
-a="D:\Long_Art\Pec_02 - copia\Library\PlayerScriptAssemblies\Unity.VisualScripting.Flow.dll"
-a="D:\Long_Art\Pec_02 - copia\Library\PlayerScriptAssemblies\Unity.VisualScripting.Core.dll"
-a="D:\Long_Art\Pec_02 - copia\Library\PlayerScriptAssemblies\Unity.ProBuilder.KdTree.dll"
-a="D:\Long_Art\Pec_02 - copia\Library\PlayerScriptAssemblies\Unity.TerrainTools.dll"
-a="D:\Long_Art\Pec_02 - copia\Library\PlayerScriptAssemblies\Unity.Postprocessing.Runtime.dll"
-a="D:\Long_Art\Pec_02 - copia\Library\PlayerScriptAssemblies\Unity.ProBuilder.Stl.dll"
-a="D:\Long_Art\Pec_02 - copia\Library\PlayerScriptAssemblies\Unity.VisualScripting.State.dll"
-a="D:\Long_Art\Pec_02 - copia\Library\PackageCache\com.unity.visualscripting@1.8.0\Runtime\VisualScripting.Flow\Dependencies\NCalc\Unity.VisualScripting.Antlr3.Runtime.dll"
-a="D:\Long_Art\Pec_02 - copia\Library\PackageCache\com.unity.testtools.codecoverage@1.2.2\lib\ReportGenerator\ReportGeneratorMerged.dll"
-a="D:\Long_Art\Pec_02 - copia\Library\PackageCache\com.unity.ext.nunit@1.0.6\net35\unity-custom\nunit.framework.dll"
-s="D:\Unity 2021.3.19f1\Editor\Data\Managed\UnityEngine"
-s="D:\Long_Art\Pec_02 - copia\Library\PlayerScriptAssemblies"
-s="D:\Long_Art\Pec_02 - copia\Packages\com.unity.burst"
-s="D:\Long_Art\Pec_02 - copia\Packages\com.unity.burst\Unity.Burst.CodeGen"
-s="D:\Long_Art\Pec_02 - copia\Library\PackageCache\com.unity.visualscripting@1.8.0\Runtime\VisualScripting.Flow\Dependencies\NCalc"
-s="D:\Long_Art\Pec_02 - copia\Library\PackageCache\com.unity.testtools.codecoverage@1.2.2\lib\ReportGenerator"
-s="D:\Long_Art\Pec_02 - copia\Library\PackageCache\com.unity.ext.nunit@1.0.6\net35\unity-custom"
-s="D:\Unity 2021.3.19f1\Editor\Data\Managed\UnityEngine"
-s="D:\Unity 2021.3.19f1\Editor\Data\NetStandard\ref\2.1.0"
-s="D:\Unity 2021.3.19f1\Editor\Data\NetStandard\compat\2.1.0\shims\netstandard"
-s="D:\Unity 2021.3.19f1\Editor\Data\NetStandard\Extensions\2.0.0"
-s="D:\Unity 2021.3.19f1\Editor\Data\NetStandard\compat\2.1.0\shims\netfx"
-o="D:\Long_Art\Pec_02 - copia\Library\BuildPlayerData\Player"
-rn="RuntimeInitializeOnLoads.json"
-tn="TypeDb-All.json"
