%YAML 1.1
%TAG !u! tag:unity3d.com,2011:
--- !u!78 &1
TagManager:
  serializedVersion: 2
  tags:
  - Platform
  - Enemy
  - Heal
  - Bullet
  - Shield
  - KeyOne
  - DoorOne
  - AmmoBox
  - Win
  - MiniPlatform
  - BulletEnemy
  - LevelInterior
  - LevelExterior
  - DoorTwo
  - KeyTwo
  - ButtonOne
  - ObstacleOne
  layers:
  - Default
  - TransparentFX
  - Ignore Raycast
  - 
  - Water
  - UI
  - 
  - 
  - 
  - 
  - 
  - 
  - 
  - 
  - 
  - 
  - 
  - 
  - 
  - 
  - 
  - 
  - 
  - 
  - 
  - 
  - 
  - 
  - 
  - 
  - 
  - 
  m_SortingLayers:
  - name: Default
    uniqueID: 0
    locked: 0
